<?xml version="1.0" encoding="UTF-8" standalone="no"?>
<svg width="53px" height="53px" viewBox="0 0 53 53" version="1.1" xmlns="http://www.w3.org/2000/svg" xmlns:xlink="http://www.w3.org/1999/xlink" xmlns:sketch="http://www.bohemiancoding.com/sketch/ns">
    <!-- Generator: Sketch 3.0.4 (8054) - http://www.bohemiancoding.com/sketch -->
    <title>icon_mail</title>
    <desc>Created with Sketch.</desc>
    <defs>
        <circle id="path-1" cx="25.5" cy="25.5" r="25.5"></circle>
    </defs>
    <g id="Page-1" stroke="none" stroke-width="1" fill="none" fill-rule="evenodd" sketch:type="MSPage">
        <g id="Landscape" sketch:type="MSArtboardGroup" transform="translate(-354.000000, -271.000000)">
            <g id="icon_mail" sketch:type="MSLayerGroup" transform="translate(355.000000, 272.000000)">
                <mask id="mask-2" sketch:name="Oval 1" fill="white">
                    <use xlink:href="#path-1"></use>
                </mask>
                <use id="Oval-1" stroke="#9B9EA6" sketch:type="MSShapeGroup" xlink:href="#path-1"></use>
                <circle id="Oval-1" stroke="#9B9EA6" sketch:type="MSShapeGroup" mask="url(#mask-2)" cx="25.5" cy="25.5" r="25.5"></circle>
                <path d="M8.98914872,21.9442317 L15.3517943,28.1836958 L16.9946457,38.4045137 L19.6592548,30.0301208 L41.529147,14.0249617 L8.98914872,21.9442317 Z M17.3810464,38.6651397 L22.592918,34.309055 L17.3810464,38.6651397 Z M41.0649475,14.4943478 L25.7178367,37.8411207 L19.5963674,30.2479574 L41.0649475,14.4943478 Z" id="Path-25" stroke="#979797" sketch:type="MSShapeGroup" mask="url(#mask-2)"></path>
                <path d="M40.9190747,14.1850976 L15.8179388,27.6857834" id="Path" stroke="#979797" sketch:type="MSShapeGroup" mask="url(#mask-2)"></path>
            </g>
        </g>
    </g>
</svg>